id,name,model_id:id,group_id:id,perm_read,perm_write,perm_create,perm_unlink
access_project_gitlab_group,project.gitlab.group,odoo_gitlab_integration.model_project_gitlab_group,,1,1,1,1
access_project_gitlab_tag,project.gitlab.tag,odoo_gitlab_integration.model_project_gitlab_tag,,1,1,1,1
access_webhook_gitlab,webhook.gitlab,odoo_gitlab_integration.model_webhook_gitlab,,1,1,1,1
